test_run_dir/Vending_machine_test_should_pass/VendingMachine.vcd
$date
2024-05-02T13:45+0000
$end
$version
0.2
$end
$comment

$end
$timescale 1ns  $end
$scope module VendingMachine $end
 $var wire 4 ) io_an $end
 $var wire 13 ; table_0 $end
 $var wire 7 = io_seg $end
 $var wire 3 > stateReg $end
 $var wire 1 ? canReg $end
 $var wire 10 K io_ledcan $end
 $var wire 1 "; io_coin5 $end
 $var wire 1 "= io_coin2 $end
 $var wire 1 "K clock $end
 $var wire 1 #) alarmReg $end
 $var wire 7 #I sum $end
 $var wire 1 #K Display $end
 $var wire 4 #L cans $end
 $var wire 13 #M table_10 $end
 $var wire 1 #O io_buy $end
 $var wire 1 #Q io_btn $end
 $var wire 1 #W io_alarm $end
 $var wire 1 #X io_releaseCan $end
 $var wire 1 #Y reset $end
 $var wire 5 #Z io_price $end
 $var wire 13 #\ table_1 $end
 $var wire 13 #] table_2 $end
 $var wire 13 #^ table_3 $end
 $var wire 13 #_ table_4 $end
 $var wire 13 #` table_5 $end
 $var wire 13 #a table_6 $end
 $var wire 13 #b table_7 $end
 $var wire 13 #c table_8 $end
 $var wire 13 #d table_9 $end
  $scope module Display.dispMux $end
  $upscope $end
  $scope module Display.dispMux.sevDis $end
  $upscope $end
  $scope module Display.dispMux.BCDSum $end
  $upscope $end
  $scope module Display.dispMux.BCDPrice $end
  $upscope $end
  $scope module Display $end
   $var wire 7 2 io_seg $end
   $var wire 1 : clock $end
   $var wire 5 X io_price $end
   $var wire 1 "- reset $end
   $var wire 4 "B io_an $end
   $var wire 8 "z io_cans $end
   $var wire 1 #; dispMux $end
   $var wire 7 #S io_sum $end
    $scope module dispMux $end
     $var wire 20 3 reg100k $end
     $var wire 1 8 BCDPrice $end
     $var wire 1 < reset $end
     $var wire 1 @ clock $end
     $var wire 7 j io_sum $end
     $var wire 1 #= sevDis $end
     $var wire 8 #> io_cans $end
     $var wire 7 #J sevSeg $end
     $var wire 1 #P BCDSum $end
     $var wire 4 #R io_an $end
     $var wire 4 #T selectReg $end
     $var wire 7 #[ io_seg $end
     $var wire 5 #e io_price $end
     $var wire 4 #f select $end
      $scope module BCDPrice $end
       $var wire 8 ! table_25 $end
       $var wire 8 " table_26 $end
       $var wire 8 # table_27 $end
       $var wire 8 $ table_28 $end
       $var wire 8 % table_29 $end
       $var wire 8 & table_20 $end
       $var wire 8 ' table_21 $end
       $var wire 8 ( table_22 $end
       $var wire 8 * table_23 $end
       $var wire 8 + table_24 $end
       $var wire 8 , table_14 $end
       $var wire 8 - table_15 $end
       $var wire 8 . table_16 $end
       $var wire 8 / table_17 $end
       $var wire 8 0 table_18 $end
       $var wire 8 1 table_19 $end
       $var wire 8 4 table_10 $end
       $var wire 8 5 table_11 $end
       $var wire 8 6 table_12 $end
       $var wire 8 7 table_13 $end
       $var wire 8 9 io_BCDn $end
       $var wire 8 L table_90 $end
       $var wire 8 M table_91 $end
       $var wire 8 N table_92 $end
       $var wire 8 O table_93 $end
       $var wire 8 P table_94 $end
       $var wire 8 Q table_95 $end
       $var wire 8 R table_96 $end
       $var wire 8 S table_97 $end
       $var wire 8 T table_98 $end
       $var wire 8 U table_99 $end
       $var wire 8 a table_80 $end
       $var wire 8 b table_81 $end
       $var wire 8 c table_82 $end
       $var wire 8 d table_83 $end
       $var wire 8 e table_84 $end
       $var wire 8 f table_85 $end
       $var wire 8 g table_86 $end
       $var wire 8 h table_87 $end
       $var wire 8 i table_88 $end
       $var wire 8 k table_89 $end
       $var wire 8 v table_9 $end
       $var wire 8 w table_5 $end
       $var wire 8 x table_6 $end
       $var wire 8 y table_70 $end
       $var wire 8 z table_7 $end
       $var wire 8 { table_71 $end
       $var wire 8 | table_8 $end
       $var wire 8 } table_72 $end
       $var wire 8 ~ table_1 $end
       $var wire 8 "! table_73 $end
       $var wire 8 "" table_2 $end
       $var wire 8 "# table_74 $end
       $var wire 8 "$ table_3 $end
       $var wire 8 "% table_75 $end
       $var wire 8 "& table_4 $end
       $var wire 8 "' table_76 $end
       $var wire 8 "( table_77 $end
       $var wire 8 ") table_78 $end
       $var wire 8 "* table_79 $end
       $var wire 8 "+ table_0 $end
       $var wire 8 ", table_69 $end
       $var wire 8 "8 table_60 $end
       $var wire 8 "9 table_61 $end
       $var wire 8 ": table_62 $end
       $var wire 8 "< table_63 $end
       $var wire 8 "> table_64 $end
       $var wire 8 "? table_65 $end
       $var wire 8 "@ table_66 $end
       $var wire 8 "A table_67 $end
       $var wire 8 "C table_68 $end
       $var wire 8 "D table_58 $end
       $var wire 8 "E table_59 $end
       $var wire 8 "T table_50 $end
       $var wire 8 "V table_51 $end
       $var wire 8 "X table_52 $end
       $var wire 8 "Z table_53 $end
       $var wire 8 "\ table_54 $end
       $var wire 8 "] table_55 $end
       $var wire 8 "_ table_56 $end
       $var wire 8 "a table_57 $end
       $var wire 8 "c table_47 $end
       $var wire 8 "d table_48 $end
       $var wire 8 "e table_49 $end
       $var wire 8 "p table_40 $end
       $var wire 8 "q table_41 $end
       $var wire 8 "r table_42 $end
       $var wire 8 "s table_43 $end
       $var wire 8 "t table_44 $end
       $var wire 8 "u table_45 $end
       $var wire 8 "v table_46 $end
       $var wire 8 "w table_36 $end
       $var wire 8 "x table_37 $end
       $var wire 8 "y table_38 $end
       $var wire 8 "{ table_39 $end
       $var wire 8 #* table_30 $end
       $var wire 8 #+ table_31 $end
       $var wire 8 #, table_32 $end
       $var wire 8 #. table_33 $end
       $var wire 8 #/ table_34 $end
       $var wire 8 #0 table_35 $end
       $var wire 8 #< io_switchIn $end
      $upscope $end
      $scope module BCDSum $end
       $var wire 8 A table_90 $end
       $var wire 8 B table_91 $end
       $var wire 8 C table_92 $end
       $var wire 8 D table_93 $end
       $var wire 8 E table_94 $end
       $var wire 8 F table_95 $end
       $var wire 8 G table_96 $end
       $var wire 8 H table_97 $end
       $var wire 8 I table_98 $end
       $var wire 8 J table_99 $end
       $var wire 8 V table_80 $end
       $var wire 8 W table_81 $end
       $var wire 8 Y table_82 $end
       $var wire 8 Z table_83 $end
       $var wire 8 [ table_84 $end
       $var wire 8 \ table_85 $end
       $var wire 8 ] table_86 $end
       $var wire 8 ^ table_87 $end
       $var wire 8 _ table_88 $end
       $var wire 8 ` table_89 $end
       $var wire 8 l table_70 $end
       $var wire 8 m table_71 $end
       $var wire 8 n table_72 $end
       $var wire 8 o table_73 $end
       $var wire 8 p table_74 $end
       $var wire 8 q table_75 $end
       $var wire 8 r table_76 $end
       $var wire 8 s table_77 $end
       $var wire 8 t table_78 $end
       $var wire 8 u table_79 $end
       $var wire 8 ". table_60 $end
       $var wire 8 "/ table_61 $end
       $var wire 8 "0 table_62 $end
       $var wire 8 "1 table_63 $end
       $var wire 8 "2 table_64 $end
       $var wire 8 "3 table_65 $end
       $var wire 8 "4 table_66 $end
       $var wire 8 "5 table_67 $end
       $var wire 8 "6 table_68 $end
       $var wire 8 "7 table_69 $end
       $var wire 8 "F table_50 $end
       $var wire 8 "G table_51 $end
       $var wire 8 "H table_52 $end
       $var wire 8 "I table_53 $end
       $var wire 8 "J table_54 $end
       $var wire 8 "L table_55 $end
       $var wire 8 "M table_56 $end
       $var wire 8 "N table_57 $end
       $var wire 8 "O table_58 $end
       $var wire 8 "P table_59 $end
       $var wire 8 "Q table_2 $end
       $var wire 8 "R table_1 $end
       $var wire 8 "S table_0 $end
       $var wire 8 "U table_6 $end
       $var wire 8 "W table_5 $end
       $var wire 8 "Y table_4 $end
       $var wire 8 "[ table_3 $end
       $var wire 8 "^ table_9 $end
       $var wire 8 "` table_8 $end
       $var wire 8 "b table_7 $end
       $var wire 8 "f table_40 $end
       $var wire 8 "g table_41 $end
       $var wire 8 "h table_42 $end
       $var wire 8 "i table_43 $end
       $var wire 8 "j table_44 $end
       $var wire 8 "k table_45 $end
       $var wire 8 "l table_46 $end
       $var wire 8 "m table_47 $end
       $var wire 8 "n table_48 $end
       $var wire 8 "o table_49 $end
       $var wire 8 "| table_30 $end
       $var wire 8 "} table_31 $end
       $var wire 8 "~ table_32 $end
       $var wire 8 #! table_33 $end
       $var wire 8 #" table_34 $end
       $var wire 8 ## table_35 $end
       $var wire 8 #% table_36 $end
       $var wire 8 #& table_37 $end
       $var wire 8 #' table_38 $end
       $var wire 8 #( table_39 $end
       $var wire 8 #1 table_20 $end
       $var wire 8 #2 table_21 $end
       $var wire 8 #3 table_22 $end
       $var wire 8 #4 table_23 $end
       $var wire 8 #5 table_24 $end
       $var wire 8 #6 table_25 $end
       $var wire 8 #7 table_26 $end
       $var wire 8 #8 table_27 $end
       $var wire 8 #9 table_28 $end
       $var wire 8 #: table_29 $end
       $var wire 8 #? table_10 $end
       $var wire 8 #@ table_11 $end
       $var wire 8 #A table_12 $end
       $var wire 8 #B table_13 $end
       $var wire 8 #C table_14 $end
       $var wire 8 #D table_15 $end
       $var wire 8 #E table_16 $end
       $var wire 8 #F table_17 $end
       $var wire 8 #G table_18 $end
       $var wire 8 #H table_19 $end
       $var wire 8 #U io_switchIn $end
       $var wire 8 #V io_BCDn $end
      $upscope $end
      $scope module sevDis $end
       $var wire 7 #$ io_out $end
       $var wire 4 #- io_in $end
       $var wire 8 #N sevSeg $end
      $upscope $end
    $upscope $end
  $upscope $end
$upscope $end
$enddefinitions $end
$dumpvars
b00000000 k
b00000000 m
b00000000 l
b00000000 g
b00000000 f
b0000 #L
b00000000 i
b00000000 h
08
b00000000 c
b00000000 b
0:
b00000000 e
b00000000 d
0<
b0000 #R
b00000000 _
b00000000 ^
b0000 #T
b00000000 a
0?
b00000000 `
0@
b00000000 {
b00000000 z
b00000000 }
b00000000 |
b00000000 w
b00000000 v
b00000000 y
b00000000 x
b00000000 s
b00000000 r
b00000000 u
b00000000 t
b00000000 o
b00000000 n
b0000000 #$
b00000000 q
b00000000 p
b0000 #f
b00000000 J
b00000000 M
b00000000 L
b00000000 G
b00000000 F
b00000000 I
b00000000 H
b00000000 C
b00000000 B
b00000000 E
b00000000 D
b0000 )
b00000000 A
b00000000 [
b00000000 Z
b00000000 ]
b00000000 \
b00000000 W
b00000000 V
b00000000 Y
b00000000 S
b00000000 R
b00000000 U
b00000000 T
b00000000 O
b00000000 N
b00000000 Q
b00000000 P
b0000000 #[
b0000000 #S
b0000000000000 ;
b00000000 ~
b0000000 #J
b0000000 #I
0"-
b00000000 "g
b00000000 #H
b00000000 "f
b00000000 #G
b00000000 "e
b00000000 #F
b00000000 "d
b00000000 #E
b00000000 "k
b00000000 "j
b00000000 "i
b00000000 "h
b00000000 "o
0";
b00000000 "n
b00000000 "m
b00000000 #N
0"=
b00000000 "l
b0000000000000 #a
b00000000 "s
b0000000000000 #b
b00000000 "r
b0000000000000 #c
b00000000 "q
b0000000000000 #d
b00000000 "p
b0000000000000 #]
b00000000 "w
b0000000000000 #^
b00000000 "v
b0000000000000 #_
b00000000 "u
b00000000 #V
b0000000000000 #`
b00000000 "t
b00000000 #U
b00000000 "{
b00000000 "z
0#)
b00000000 "y
b0000000000000 #\
b00000000 "x
0"K
b00000000 "~
b00000000 "}
b00000000 "|
b0000000000000 #M
b0000000 j
0#;
0#=
0#K
0#O
0#P
0#Q
0#W
0#X
0#Y
b00000 #e
b00000 #Z
b0000000 =
b000 >
b0000000 2
b00000000 "#
b00000000 ""
b00000000 "!
b00000000 "'
b00000000 "&
b00000000 "%
b00000000 "$
b00000000 "+
b00000000 "*
b00000000 ")
b00000000000000000000 3
b00000000 "(
b00000000 "/
b00000000 ".
b00000000 ",
b00000000 "3
b00000000 "2
b00000000 "1
b00000000 "0
b00000000 "7
b00000000 "6
b00000000 "5
b00000000 "4
b00000000 ":
b00000000 "9
b00000000 "8
b00000000 "?
b00000000 ">
b00000000 "<
b00000000 "C
b00000000 ##
b00000000 "A
b00000000 #"
b00000000 "@
b00000000 #!
b00000000 "G
b00000000 #(
b00000000 "F
b00000000 #'
b00000000 "E
b00000000 #&
b00000000 "D
b00000000 #%
b00000000 #,
b00000000 "J
b00000000 #+
b00000000 "I
b00000000 #*
b00000000 "H
b00000000 "O
b00000000 #0
b00000000 "N
b00000000 #/
b00000000 "M
b00000000 #.
b00000000 "L
b00000000 "S
b00000000 #4
b00000000 "R
b00000000 #3
b00000000 "Q
b00000000 #2
b00000000 "P
b00000000 #1
b00000000 "W
b00000000 #8
b00000000 "V
b00000000 #7
b00000000 "U
b00000000 #6
b00000000 "T
b00000000 #5
b00000000 "[
b00000000 #<
b00000000 "Z
b00000000 "Y
b00000000 #:
b0000000000 K
b00000000 "X
b00000000 #9
b00000000 "_
b00000000 #@
b00000000 "^
b00000000 #?
b00000000 "]
b00000000 #>
b00000000 "\
b00000000 "c
b00000000 #D
b00000000 "b
b00000000 #C
b00000000 "a
b00000000 #B
b00000000 "`
b00000000 #A
b00000000 +
b00000000 *
b00000000 -
b00000000 ,
b00000000 '
b00000000 &
b00000 X
b00000000 (
b00000000 #
b00000000 "
b00000000 %
b00000000 $
b00000000 !
b00000000 7
b00000000 6
b00000000 9
b00000000 5
b00000000 4
b00000000 /
b00000000 .
b00000000 1
b0000 "B
b00000000 0
b0000 #-
$end
#0
b00100101 !
b00100110 "
b00100111 #
b00101000 $
b00101001 %
b00100000 &
b00100001 '
b00100010 (
b1111 )
b00100011 *
b00100100 +
b00010100 ,
b00010101 -
b00010110 .
b00010111 /
b00011000 0
b00011001 1
b1000000 2
b00010000 4
b00010001 5
b00010010 6
b00010011 7
1<
b1000000 =
b01110011 "!
b00000010 ""
b10010000 A
b01110100 "#
b10010001 B
b00000011 "$
b10010010 C
b01110101 "%
b10010011 D
b00000100 "&
b10010100 E
b01110110 "'
b10010101 F
b01110111 "(
b10010110 G
b01111000 ")
b10010111 H
b01111001 "*
b10011000 I
b10011001 J
b01101001 ",
1"-
b10010000 L
b01100000 ".
b10010001 M
b01100001 "/
b10010010 N
b01100010 "0
b10010011 O
b01100011 "1
b10010100 P
b01100100 "2
b10010101 Q
b01100101 "3
b10010110 R
b01100110 "4
b10010111 S
b01100111 "5
b10011000 T
b01101000 "6
b10011001 U
b01101001 "7
b10000000 V
b01100000 "8
b10000001 W
b01100001 "9
b01100010 ":
b10000010 Y
b10000011 Z
b01100011 "<
b10000100 [
b10000101 \
b01100100 ">
b10000110 ]
b01100101 "?
b10000111 ^
b01100110 "@
b00110011 #!
b10001000 _
b01100111 "A
b00110100 #"
b10001001 `
b00110101 ##
b1111 "B
b10000000 a
b01101000 "C
b1000000 #$
b10000001 b
b01011000 "D
b00110110 #%
b10000010 c
b01011001 "E
b00110111 #&
b10000011 d
b00111000 #'
b01010000 "F
b10000100 e
b00111001 #(
b01010001 "G
b10000101 f
b01010010 "H
b10000110 g
b00110000 #*
b01010011 "I
b10000111 h
b00110001 #+
b01010100 "J
b10001000 i
b00110010 #,
b01010101 "L
b10001001 k
b00110011 #.
b01010110 "M
b01110000 l
b00110100 #/
b01010111 "N
b01110001 m
b00110101 #0
b01011000 "O
b01110010 n
b00100000 #1
b01011001 "P
b01110011 o
b00000010 "Q
b00100001 #2
b01110100 p
b00000001 "R
b00100010 #3
b01110101 q
b00100011 #4
b01110110 r
b01010000 "T
b00100100 #5
b01110111 s
b00000110 "U
b00100101 #6
b01111000 t
b01010001 "V
b00100110 #7
b01111001 u
b00000101 "W
b00100111 #8
b00001001 v
b01010010 "X
b00101000 #9
b00000101 w
b00000100 "Y
b00101001 #:
b00000110 x
b01010011 "Z
b01110000 y
b00000011 "[
b00000111 z
b01010100 "\
b01110001 {
b01010101 "]
b00001000 |
b00001001 "^
b00010000 #?
b01110010 }
b01010110 "_
b00010001 #@
b00000001 ~
b00001000 "`
b00010010 #A
b01010111 "a
b00010011 #B
b00000111 "b
b00010100 #C
b01000111 "c
b00010101 #D
b01001000 "d
b00010110 #E
b01001001 "e
b00010111 #F
b00011000 #G
b01000000 "f
b00011001 #H
b01000001 "g
b01000010 "h
b01000011 "i
b1000000 #J
b01000100 "j
b01000101 "k
b01000110 "l
b0001111111111 #M
b01000111 "m
b01000000 #N
b01001000 "n
b01001001 "o
b01000000 "p
b01000001 "q
b1111 #R
b01000010 "r
b01000011 "s
b01000100 "t
b01000101 "u
b01000110 "v
b00110110 "w
1#Y
b00110111 "x
b00111000 "y
b1000000 #[
b00111001 "{
b0000000000001 #\
b00110000 "|
b0000000000011 #]
b00110001 "}
b0000000000111 #^
b00110010 "~
b0000000001111 #_
b0000000011111 #`
b0000000111111 #a
b0000001111111 #b
b0000011111111 #c
b0000111111111 #d
#1
1@
b0111 "B
b1000 #f
b0111 )
1"K
b1010 #L
b1111111111 K
b0111 #R
b1000 #T
b00001010 "z
1:
b00001010 #>
#6
0@
b00111 #e
0#Y
b00111 #Z
b00111 X
b00000111 9
0"K
b00000111 #<
0:
0"-
0<
#11
1@
b00000000000000000001 3
1"K
1:
#16
0@
0"K
0:
#21
1@
b00000000000000000010 3
1"K
1:
#26
0@
0"K
0:
#31
1@
b00000000000000000011 3
1"K
1:
#36
0@
0"K
0:
1"=
#41
1@
b00000000000000000100 3
1"K
1:
b001 >
#46
0@
0"K
0:
#51
1@
b0000010 #S
b00000010 #U
b00000000000000000101 3
b00000010 #V
b0000010 #I
1"K
1:
b0000010 j
b011 >
#56
0@
0"K
0:
#61
1@
b00000000000000000110 3
1"K
1:
#66
0@
0"K
0:
0"=
#71
1@
b00000000000000000111 3
1"K
1:
b000 >
#76
0@
0"K
0:
#81
1@
b00000000000000001000 3
1"K
1:
#86
0@
0"K
0:
#91
1@
b00000000000000001001 3
1"K
1:
#96
0@
0"K
0:
#101
1@
b00000000000000001010 3
1"K
1:
#106
0@
0"K
0:
#111
1@
b00000000000000001011 3
1"K
1:
#116
0@
0"K
0:
#121
1@
b00000000000000001100 3
1"K
1:
#126
0@
1";
0"K
0:
#131
1@
b00000000000000001101 3
1"K
1:
b010 >
#136
0@
0"K
0:
#141
1@
b0000111 #S
b00000111 #U
b00000000000000001110 3
b00000111 #V
b0000111 #I
1"K
1:
b0000111 j
b011 >
#146
0@
0"K
0:
#151
1@
b00000000000000001111 3
1"K
1:
#156
0@
0";
0"K
0:
#161
1@
b00000000000000010000 3
1"K
1:
b000 >
#166
0@
0"K
0:
#171
1@
b00000000000000010001 3
1"K
1:
#176
0@
0"K
0:
#181
1@
b00000000000000010010 3
1"K
1:
#186
0@
0"K
0:
#191
1@
b00000000000000010011 3
1"K
1:
#196
0@
0"K
0:
#201
1@
b00000000000000010100 3
1"K
1:
#206
0@
0"K
0:
#211
1@
b00000000000000010101 3
1"K
1:
#216
0@
0"K
0:
#221
1@
b00000000000000010110 3
1"K
1:
#226
0@
0"K
0:
#231
1@
b00000000000000010111 3
1"K
1:
#236
0@
0"K
0:
1#O
#241
1@
b00000000000000011000 3
1#X
1"K
1:
b100 >
#246
0@
0"K
0:
#251
1@
b00000000000000011001 3
1"K
1:
#256
0@
0"K
0:
#261
1@
b00000000000000011010 3
1"K
1:
#266
0@
0#X
0"K
0:
0#O
#271
1@
b0000000 #I
1"K
b1001 #L
b0000000 j
b0111111111 K
b0000000 #S
b00000000 #U
b00000000000000011011 3
b00000000 #V
b00001001 "z
1:
b00001001 #>
b011 >
#276
0@
0"K
0:
#281
1@
b00000000000000011100 3
1"K
1:
b000 >
#286
0@
0"K
0:
#291
1@
b00000000000000011101 3
1"K
1:
#296
0@
0"K
0:
#301
1@
b00000000000000011110 3
1"K
1:
#306
0@
0"K
0:
#311
1@
b00000000000000011111 3
1"K
1:
#316
0@
0"K
0:
#321
1@
b00000000000000100000 3
1"K
1:
#326
0@
0"K
0:
#331
1@
b00000000000000100001 3
1"K
1:
#336
0@
0"K
0:
#341
1@
b00000000000000100010 3
1"K
1:
#346
0@
0"K
0:
#351
1@
b00000000000000100011 3
1"K
1:
#356
0@
0"K
0:
#361
1@
b00000000000000100100 3
1"K
1:
#366
0@
b00001 #e
b00001 #Z
b00001 X
b00000001 9
0"K
b00000001 #<
0:
#371
1@
b00000000000000100101 3
1"K
1:
#376
0@
0"K
0:
#381
1@
b00000000000000100110 3
1"K
1:
#386
0@
0"K
0:
#391
1@
b00000000000000100111 3
1"K
1:
#396
0@
1";
0"K
0:
#401
1@
b00000000000000101000 3
1"K
1:
b010 >
#406
0@
0"K
0:
#411
1@
b0000101 #S
b00000101 #U
b00000000000000101001 3
b00000101 #V
b0000101 #I
1"K
1:
b0000101 j
b011 >
#416
0@
0"K
0:
#421
1@
b00000000000000101010 3
1"K
1:
#426
0@
0";
0"K
0:
#431
1@
b00000000000000101011 3
1"K
1:
b000 >
#436
0@
0"K
0:
#441
1@
b00000000000000101100 3
1"K
1:
#446
0@
0"K
0:
#451
1@
b00000000000000101101 3
1"K
1:
#456
0@
1";
0"K
0:
#461
1@
b00000000000000101110 3
1"K
1:
b010 >
#466
0@
0"K
0:
#471
1@
b1111001 #$
b0001010 #I
b1111001 #J
1"K
b0001010 j
b0001 #-
b01111001 #N
b0001010 #S
b1111001 2
b00001010 #U
b00000000000000101111 3
b00010000 #V
b1111001 #[
1:
b1111001 =
b011 >
#476
0@
0"K
0:
#481
1@
b00000000000000110000 3
1"K
1:
#486
0@
0";
0"K
0:
#491
1@
b00000000000000110001 3
1"K
1:
b000 >
#496
0@
0"K
0:
#501
1@
b00000000000000110010 3
1"K
1:
#506
0@
0"K
0:
#511
1@
b00000000000000110011 3
1"K
1:
#516
0@
1";
0"K
0:
#521
1@
b00000000000000110100 3
1"K
1:
b010 >
#526
0@
0"K
0:
#531
1@
b0001111 #S
b00001111 #U
b00000000000000110101 3
b00010101 #V
b0001111 #I
1"K
1:
b0001111 j
b011 >
#536
0@
0"K
0:
#541
1@
b00000000000000110110 3
1"K
1:
#546
0@
0";
0"K
0:
#551
1@
b00000000000000110111 3
1"K
1:
b000 >
#556
0@
0"K
0:
#561
1@
b00000000000000111000 3
1"K
1:
#566
0@
0"K
0:
#571
1@
b00000000000000111001 3
1"K
1:
#576
0@
1";
0"K
0:
#581
1@
b00000000000000111010 3
1"K
1:
b010 >
#586
0@
0"K
0:
#591
1@
b0100100 #$
b0010100 #I
b0100100 #J
1"K
b0010100 j
b0010 #-
b00100100 #N
b0010100 #S
b0100100 2
b00010100 #U
b00000000000000111011 3
b00100000 #V
b0100100 #[
1:
b0100100 =
b011 >
#596
0@
0"K
0:
#601
1@
b00000000000000111100 3
1"K
1:
#606
0@
0";
0"K
0:
#611
1@
b00000000000000111101 3
1"K
1:
b000 >
#616
0@
0"K
0:
#621
1@
b00000000000000111110 3
1"K
1:
#626
0@
0"K
0:
#631
1@
b00000000000000111111 3
1"K
1:
#636
0@
1";
0"K
0:
#641
1@
b00000000000001000000 3
1"K
1:
b010 >
#646
0@
0"K
0:
#651
1@
b0011001 #S
b00011001 #U
b00000000000001000001 3
b00100101 #V
b0011001 #I
1"K
1:
b0011001 j
b011 >
#656
0@
0"K
0:
#661
1@
b00000000000001000010 3
1"K
1:
#666
0@
0";
0"K
0:
#671
1@
b00000000000001000011 3
1"K
1:
b000 >
#676
0@
0"K
0:
#681
1@
b00000000000001000100 3
1"K
1:
#686
0@
0"K
0:
#691
1@
b00000000000001000101 3
1"K
1:
#696
0@
0"K
0:
1#O
#701
1@
b00000000000001000110 3
1#X
1"K
1:
b100 >
#706
0@
0"K
0:
#711
1@
b00000000000001000111 3
1"K
1:
#716
0@
0"K
0:
#721
1@
b00000000000001001000 3
1"K
1:
#726
0@
0#X
0"K
0:
0#O
#731
1@
b0011000 #I
1"K
b1000 #L
b0011000 j
b0011111111 K
b0011000 #S
b00011000 #U
b00000000000001001001 3
b00100100 #V
b00001000 "z
1:
b00001000 #>
b011 >
#736
0@
0"K
0:
#741
1@
b00000000000001001010 3
1"K
1:
b000 >
#746
0@
0"K
0:
#751
1@
b00000000000001001011 3
1"K
1:
#756
0@
0"K
0:
1#O
#761
1@
b00000000000001001100 3
1#X
1"K
1:
b100 >
#766
0@
0"K
0:
#771
1@
b00000000000001001101 3
1"K
1:
#776
0@
0"K
0:
#781
1@
b00000000000001001110 3
1"K
1:
#786
0@
0#X
0"K
0:
0#O
#791
1@
b0010111 #I
1"K
b0111 #L
b0010111 j
b0001111111 K
b0010111 #S
b00010111 #U
b00000000000001001111 3
b00100011 #V
b00000111 "z
1:
b00000111 #>
b011 >
#796
0@
0"K
0:
#801
1@
b00000000000001010000 3
1"K
1:
b000 >
#806
0@
0"K
0:
#811
1@
b00000000000001010001 3
1"K
1:
#816
0@
0"K
0:
1#O
#821
1@
b00000000000001010010 3
1#X
1"K
1:
b100 >
#826
0@
0"K
0:
#831
1@
b00000000000001010011 3
1"K
1:
#836
0@
0"K
0:
#841
1@
b00000000000001010100 3
1"K
1:
#846
0@
0#X
0"K
0:
0#O
#851
1@
b0010110 #I
1"K
b0110 #L
b0010110 j
b0000111111 K
b0010110 #S
b00010110 #U
b00000000000001010101 3
b00100010 #V
b00000110 "z
1:
b00000110 #>
b011 >
#856
0@
0"K
0:
#861
1@
b00000000000001010110 3
1"K
1:
b000 >
#866
0@
0"K
0:
#871
1@
b00000000000001010111 3
1"K
1:
#876
0@
0"K
0:
1#O
#881
1@
b00000000000001011000 3
1#X
1"K
1:
b100 >
#886
0@
0"K
0:
#891
1@
b00000000000001011001 3
1"K
1:
#896
0@
0"K
0:
#901
1@
b00000000000001011010 3
1"K
1:
#906
0@
0#X
0"K
0:
0#O
#911
1@
b0010101 #I
1"K
b0101 #L
b0010101 j
b0000011111 K
b0010101 #S
b00010101 #U
b00000000000001011011 3
b00100001 #V
b00000101 "z
1:
b00000101 #>
b011 >
#916
0@
0"K
0:
#921
1@
b00000000000001011100 3
1"K
1:
b000 >
#926
0@
0"K
0:
#931
1@
b00000000000001011101 3
1"K
1:
#936
0@
0"K
0:
1#O
#941
1@
b00000000000001011110 3
1#X
1"K
1:
b100 >
#946
0@
0"K
0:
#951
1@
b00000000000001011111 3
1"K
1:
#956
0@
0"K
0:
#961
1@
b00000000000001100000 3
1"K
1:
#966
0@
0#X
0"K
0:
0#O
#971
1@
b0010100 #I
1"K
b0100 #L
b0010100 j
b0000001111 K
b0010100 #S
b00010100 #U
b00000000000001100001 3
b00100000 #V
b00000100 "z
1:
b00000100 #>
b011 >
#976
0@
0"K
0:
#981
1@
b00000000000001100010 3
1"K
1:
b000 >
#986
0@
0"K
0:
#991
1@
b00000000000001100011 3
1"K
1:
#996
0@
0"K
0:
1#O
#1001
1@
b00000000000001100100 3
1#X
1"K
1:
b100 >
#1006
0@
0"K
0:
#1011
1@
b00000000000001100101 3
1"K
1:
#1016
0@
0"K
0:
#1021
1@
b00000000000001100110 3
1"K
1:
#1026
0@
0#X
0"K
0:
0#O
#1031
1@
b1111001 #$
b0010011 #I
b1111001 #J
1"K
b0011 #L
b0010011 j
b0001 #-
b0000000111 K
b01111001 #N
b0010011 #S
b1111001 2
b00010011 #U
b00000000000001100111 3
b00011001 #V
b00000011 "z
b1111001 #[
1:
b00000011 #>
b1111001 =
b011 >
#1036
0@
0"K
0:
#1041
1@
b00000000000001101000 3
1"K
1:
b000 >
#1046
0@
0"K
0:
#1051
1@
b00000000000001101001 3
1"K
1:
#1056
0@
0"K
0:
1#O
#1061
1@
b00000000000001101010 3
1#X
1"K
1:
b100 >
#1066
0@
0"K
0:
#1071
1@
b00000000000001101011 3
1"K
1:
#1076
0@
0"K
0:
#1081
1@
b00000000000001101100 3
1"K
1:
#1086
0@
0#X
0"K
0:
0#O
#1091
1@
b0010010 #I
1"K
b0010 #L
b0010010 j
b0000000011 K
b0010010 #S
b00010010 #U
b00000000000001101101 3
b00011000 #V
b00000010 "z
1:
b00000010 #>
b011 >
#1096
0@
0"K
0:
#1101
1@
b00000000000001101110 3
1"K
1:
b000 >
#1106
0@
0"K
0:
#1111
1@
b00000000000001101111 3
1"K
1:
#1116
0@
0"K
0:
1#O
#1121
1@
b00000000000001110000 3
1#X
1"K
1:
b100 >
#1126
0@
0"K
0:
#1131
1@
b00000000000001110001 3
1"K
1:
#1136
0@
0"K
0:
#1141
1@
b00000000000001110010 3
1"K
1:
#1146
0@
0#X
0"K
0:
0#O
#1151
1@
b0010001 #I
1"K
b0001 #L
b0010001 j
b0000000001 K
b0010001 #S
b00010001 #U
b00000000000001110011 3
b00010111 #V
b00000001 "z
1:
b00000001 #>
b011 >
#1156
0@
0"K
0:
#1161
1@
b00000000000001110100 3
1"K
1:
b000 >
#1166
0@
0"K
0:
#1171
1@
b00000000000001110101 3
1"K
1:
#1176
0@
0"K
0:
1#O
#1181
1@
b00000000000001110110 3
1#X
1"K
1:
b100 >
#1186
0@
0"K
0:
#1191
1@
b00000000000001110111 3
1"K
1:
#1196
0@
0"K
0:
#1201
1@
b00000000000001111000 3
1"K
1:
#1206
0@
0#X
0"K
0:
0#O
#1211
1@
b0000110 #$
b0010000 #I
b0000110 #J
1"K
b0000 #L
b0010000 j
b1010 #-
b0000000000 K
b00000110 #N
b0010000 #S
b0000110 2
b00010000 #U
b00000000000001111001 3
b00010110 #V
b00000000 "z
b0000110 #[
1:
b00000000 #>
b0000110 =
b011 >
#1216
0@
0"K
0:
#1221
1@
b00000000000001111010 3
1"K
1:
b000 >
#1226
0@
0"K
0:
#1231
1@
b00000000000001111011 3
1"K
1:
#1236
0@
0"K
0:
1#O
#1241
1@
b00000000000001111100 3
1#X
1"K
1:
b100 >
#1246
0@
0"K
0:
#1251
1@
b00000000000001111101 3
1"K
1:
#1256
0@
0"K
0:
#1261
1@
b00000000000001111110 3
1"K
1:
#1266
0@
0#X
0"K
0:
0#O
#1271
1@
b00000000000001111111 3
1"K
1:
b110 >
#1276
0@
0"K
0:
#1281
1@
b00000000000010000000 3
1"K
1:
#1286
0@
0"K
0:
#1291
1@
b00000000000010000001 3
1"K
1:
#1296
0@
0"K
0:
1#O
